%YAML 1.1
%TAG !u! tag:unity3d.com,2011:
--- !u!114 &11400000
MonoBehaviour:
  m_ObjectHideFlags: 0
  m_CorrespondingSourceObject: {fileID: 0}
  m_PrefabInstance: {fileID: 0}
  m_PrefabAsset: {fileID: 0}
  m_GameObject: {fileID: 0}
  m_Enabled: 1
  m_EditorHideFlags: 0
  m_Script: {fileID: 11500000, guid: 0a96cf71494313b42b0e2459b8aa90d2, type: 3}
  m_Name: Staff
  m_EditorClassIdentifier: 
  ItemName: Wakanda Staff
  ItemSprite: {fileID: 21300000, guid: 4ebe3495b584a3f47bb652e3c90d7480, type: 3}
  Description: yibambe
  WorldObjectPrefab: {fileID: 5482170467533448303, guid: 56ca1676619f33d48b134bb4a8b721c8,
    type: 3}
  Slot: 666
  MinimumStrength: 0
  MinimumAgility: 0
  MinimumDefense: 0
  EquippedEffects: []
  HitSounds: []
  SwingSounds: []
  Stats:
    Speed: 0.25
    MinimumDamage: 25
    MaximumDamage: 34
    MaxRange: 2.25
  AttackEffects: []
